{
    "type": "FeatureCollection",
    "features": [
        {
            "type": "Feature",
            "properties": {},
            "geometry": {
                "type": "Polygon",
                "coordinates": [
                    [
                        [
                            13.09621810913086,
                            52.468560246396606
                        ],
                        [
                            13.10068130493164,
                            52.52154811647113
                        ],
                        [
                            13.06617736816406,
                            52.53460237630518
                        ],
                        [
                            13.01107406616211,
                            52.53272280202344
                        ],
                        [
                            13.010902404785156,
                            52.52906784393992
                        ],
                        [
                            13.001804351806639,
                            52.528127948407935
                        ],
                        [
                            12.996997833251951,
                            52.5296944297867
                        ],
                        [
                            12.98309326171875,
                            52.52353261403368
                        ],
                        [
                            12.989788055419922,
                            52.5131913538099
                        ],
                        [
                            12.969017028808594,
                            52.514236036066244
                        ],
                        [
                            12.987041473388672,
                            52.49783165855702
                        ],
                        [
                            13.05776596069336,
                            52.45946123411788
                        ],
                        [
                            13.068923950195312,
                            52.45977502447022
                        ],
                        [
                            13.09621810913086,
                            52.468560246396606
                        ]
                    ]
                ]
            }
        }
    ]
}
